// Jest Snapshot v1, https://goo.gl/fbAQLP

exports[`left-menu index all state matches snapshot 1`] = `
<div
  class="root js-left-menu-root logged-in pinned"
>
  <header
    class="header"
  >
    <section
      class="header-minibar layout-minibar"
    >
      <svg
        class="logo-gitter-sign"
        version="1.1"
        viewBox="0 0 18 25"
        xmlns="http://www.w3.org/2000/svg"
        xmlns:xlink="http://www.w3.org/1999/xlink"
      >
        <rect
          height="10"
          width="2"
          x="15"
          y="5"
        />
         
        <rect
          height="20"
          width="2"
          x="10"
          y="5"
        />
         
        <rect
          height="20"
          width="2"
          x="5"
          y="5"
        />
         
        <rect
          height="15"
          width="2"
        />
      </svg>
    </section>
     
    <section
      class="header-main-menu layout-main-menu"
    >
      <span
        class="logo-text"
      />
    </section>
  </header>
   
  <section
    class="body"
  >
    <section
      class="layout-minibar"
    >
      <menu-bar-body-stub />
    </section>
     
    <section
      class="body-main-menu layout-main-menu scroller"
    >
      <h2
        class="room-list-title"
      >
        All conversations
      </h2>
       
      <!---->
       
      <room-list-stub
        rooms=""
      />
    </section>
  </section>
</div>
`;

exports[`left-menu index dark-theme matches snapshot 1`] = `
<div
  class="root js-left-menu-root logged-in dark-theme pinned"
>
  <header
    class="header"
  >
    <section
      class="header-minibar layout-minibar"
    >
      <svg
        class="logo-gitter-sign"
        version="1.1"
        viewBox="0 0 18 25"
        xmlns="http://www.w3.org/2000/svg"
        xmlns:xlink="http://www.w3.org/1999/xlink"
      >
        <rect
          height="10"
          width="2"
          x="15"
          y="5"
        />
         
        <rect
          height="20"
          width="2"
          x="10"
          y="5"
        />
         
        <rect
          height="20"
          width="2"
          x="5"
          y="5"
        />
         
        <rect
          height="15"
          width="2"
        />
      </svg>
    </section>
     
    <section
      class="header-main-menu layout-main-menu"
    >
      <span
        class="logo-text"
      />
    </section>
  </header>
   
  <section
    class="body"
  >
    <section
      class="layout-minibar"
    >
      <menu-bar-body-stub />
    </section>
     
    <section
      class="body-main-menu layout-main-menu scroller"
    >
      <h2
        class="room-list-title"
      >
        All conversations
      </h2>
       
      <!---->
       
      <room-list-stub
        rooms=""
      />
    </section>
  </section>
</div>
`;

exports[`left-menu index mobile mobile matches snapshot 1`] = `
<div
  class="root js-left-menu-root logged-in pinned"
>
  <header
    class="header"
  >
    <section
      class="header-minibar layout-minibar"
    >
      <svg
        class="logo-gitter-sign"
        version="1.1"
        viewBox="0 0 18 25"
        xmlns="http://www.w3.org/2000/svg"
        xmlns:xlink="http://www.w3.org/1999/xlink"
      >
        <rect
          height="10"
          width="2"
          x="15"
          y="5"
        />
         
        <rect
          height="20"
          width="2"
          x="10"
          y="5"
        />
         
        <rect
          height="20"
          width="2"
          x="5"
          y="5"
        />
         
        <rect
          height="15"
          width="2"
        />
      </svg>
    </section>
     
    <section
      class="header-main-menu layout-main-menu"
    >
      <span
        class="logo-text"
      />
    </section>
  </header>
   
  <section
    class="body"
  >
    <section
      class="layout-minibar"
    >
      <menu-bar-body-stub />
    </section>
     
    <section
      class="body-main-menu layout-main-menu scroller"
    >
      <h2
        class="room-list-title"
      >
        All conversations
      </h2>
       
      <!---->
       
      <room-list-stub
        rooms=""
      />
    </section>
  </section>
</div>
`;

exports[`left-menu index nli (not logged in) matches snapshot 1`] = `
<div
  class="root js-left-menu-root pinned"
>
  <header
    class="header"
  >
    <section
      class="header-minibar layout-minibar"
    >
      <svg
        class="logo-gitter-sign"
        version="1.1"
        viewBox="0 0 18 25"
        xmlns="http://www.w3.org/2000/svg"
        xmlns:xlink="http://www.w3.org/1999/xlink"
      >
        <rect
          height="10"
          width="2"
          x="15"
          y="5"
        />
         
        <rect
          height="20"
          width="2"
          x="10"
          y="5"
        />
         
        <rect
          height="20"
          width="2"
          x="5"
          y="5"
        />
         
        <rect
          height="15"
          width="2"
        />
      </svg>
    </section>
     
    <section
      class="header-main-menu layout-main-menu"
    >
      <span
        class="logo-text"
      />
    </section>
  </header>
   
  <section
    class="body nli-body"
  >
    <h2
      class="nli-primary-heading"
    >
      Where communities thrive
    </h2>
     
    <br />
     
    <ul
      class="nli-info-block"
    >
      <li
        class="nli-info-block-item"
      >
        Join over 
        <strong>
          1.5M+ people
        </strong>
      </li>
       
      <li
        class="nli-info-block-item"
      >
        Join over 
        <strong>
          100K+ communities
        </strong>
      </li>
       
      <li
        class="nli-info-block-item"
      >
        Free 
        <strong>
          without limits
        </strong>
      </li>
       
      <li
        class="nli-info-block-item"
      >
        Create 
        <strong>
          your own community
        </strong>
      </li>
    </ul>
     
    <ul
      class="nli-info-block"
    >
      <li
        class="nli-info-block-item"
      >
        <a
          href="/explore"
        >
          Explore more communities
        </a>
      </li>
    </ul>
  </section>
</div>
`;

exports[`left-menu index nli (not logged in) mobile matches snapshot 1`] = `
<div
  class="root js-left-menu-root pinned"
>
  <header
    class="header"
  >
    <section
      class="header-minibar layout-minibar"
    >
      <svg
        class="logo-gitter-sign"
        version="1.1"
        viewBox="0 0 18 25"
        xmlns="http://www.w3.org/2000/svg"
        xmlns:xlink="http://www.w3.org/1999/xlink"
      >
        <rect
          height="10"
          width="2"
          x="15"
          y="5"
        />
         
        <rect
          height="20"
          width="2"
          x="10"
          y="5"
        />
         
        <rect
          height="20"
          width="2"
          x="5"
          y="5"
        />
         
        <rect
          height="15"
          width="2"
        />
      </svg>
    </section>
     
    <section
      class="header-main-menu layout-main-menu"
    >
      <span
        class="logo-text"
      />
    </section>
  </header>
   
  <section
    class="body nli-body"
  >
    <h2
      class="nli-primary-heading"
    >
      Where communities thrive
    </h2>
     
    <br />
     
    <ul
      class="nli-info-block"
    >
      <li
        class="nli-info-block-item"
      >
        Join over 
        <strong>
          1.5M+ people
        </strong>
      </li>
       
      <li
        class="nli-info-block-item"
      >
        Join over 
        <strong>
          100K+ communities
        </strong>
      </li>
       
      <li
        class="nli-info-block-item"
      >
        Free 
        <strong>
          without limits
        </strong>
      </li>
       
      <li
        class="nli-info-block-item"
      >
        Create 
        <strong>
          your own community
        </strong>
      </li>
    </ul>
     
    <ul
      class="nli-info-block"
    >
      <li
        class="nli-info-block-item"
      >
        <a
          href="/explore"
        >
          Explore more communities
        </a>
      </li>
    </ul>
  </section>
</div>
`;

exports[`left-menu index people state matches snapshot 1`] = `
<div
  class="root js-left-menu-root logged-in pinned"
>
  <header
    class="header"
  >
    <section
      class="header-minibar layout-minibar"
    >
      <svg
        class="logo-gitter-sign"
        version="1.1"
        viewBox="0 0 18 25"
        xmlns="http://www.w3.org/2000/svg"
        xmlns:xlink="http://www.w3.org/1999/xlink"
      >
        <rect
          height="10"
          width="2"
          x="15"
          y="5"
        />
         
        <rect
          height="20"
          width="2"
          x="10"
          y="5"
        />
         
        <rect
          height="20"
          width="2"
          x="5"
          y="5"
        />
         
        <rect
          height="15"
          width="2"
        />
      </svg>
    </section>
     
    <section
      class="header-main-menu layout-main-menu"
    >
      <span
        class="logo-text"
      />
    </section>
  </header>
   
  <section
    class="body"
  >
    <section
      class="layout-minibar"
    >
      <menu-bar-body-stub />
    </section>
     
    <section
      class="body-main-menu layout-main-menu scroller"
    >
      <!---->
       
      <h2
        class="room-list-title"
      >
        People
      </h2>
       
      <room-list-stub
        rooms=""
      />
    </section>
  </section>
</div>
`;

exports[`left-menu index pinning and expanding not pinned and collapse 1`] = `
<div
  class="root js-left-menu-root logged-in"
>
  <header
    class="header"
  >
    <section
      class="header-minibar layout-minibar"
    >
      <svg
        class="logo-gitter-sign"
        version="1.1"
        viewBox="0 0 18 25"
        xmlns="http://www.w3.org/2000/svg"
        xmlns:xlink="http://www.w3.org/1999/xlink"
      >
        <rect
          height="10"
          width="2"
          x="15"
          y="5"
        />
         
        <rect
          height="20"
          width="2"
          x="10"
          y="5"
        />
         
        <rect
          height="20"
          width="2"
          x="5"
          y="5"
        />
         
        <rect
          height="15"
          width="2"
        />
      </svg>
    </section>
     
    <section
      class="header-main-menu layout-main-menu"
    >
      <span
        class="logo-text"
      />
    </section>
  </header>
   
  <section
    class="body"
  >
    <section
      class="layout-minibar"
    >
      <menu-bar-body-stub />
    </section>
     
    <section
      class="body-main-menu layout-main-menu scroller"
    >
      <h2
        class="room-list-title"
      >
        All conversations
      </h2>
       
      <!---->
       
      <room-list-stub
        rooms=""
      />
    </section>
  </section>
</div>
`;

exports[`left-menu index pinning and expanding not pinned and expanded 1`] = `
<div
  class="root js-left-menu-root logged-in expanded"
>
  <header
    class="header"
  >
    <section
      class="header-minibar layout-minibar"
    >
      <svg
        class="logo-gitter-sign"
        version="1.1"
        viewBox="0 0 18 25"
        xmlns="http://www.w3.org/2000/svg"
        xmlns:xlink="http://www.w3.org/1999/xlink"
      >
        <rect
          height="10"
          width="2"
          x="15"
          y="5"
        />
         
        <rect
          height="20"
          width="2"
          x="10"
          y="5"
        />
         
        <rect
          height="20"
          width="2"
          x="5"
          y="5"
        />
         
        <rect
          height="15"
          width="2"
        />
      </svg>
    </section>
     
    <section
      class="header-main-menu layout-main-menu"
    >
      <span
        class="logo-text"
      />
    </section>
  </header>
   
  <section
    class="body"
  >
    <section
      class="layout-minibar"
    >
      <menu-bar-body-stub />
    </section>
     
    <section
      class="body-main-menu layout-main-menu scroller"
    >
      <h2
        class="room-list-title"
      >
        All conversations
      </h2>
       
      <!---->
       
      <room-list-stub
        rooms=""
      />
    </section>
  </section>
</div>
`;

exports[`left-menu index search state matches snapshot 1`] = `
<div
  class="root js-left-menu-root logged-in pinned"
>
  <header
    class="header"
  >
    <section
      class="header-minibar layout-minibar"
    >
      <svg
        class="logo-gitter-sign"
        version="1.1"
        viewBox="0 0 18 25"
        xmlns="http://www.w3.org/2000/svg"
        xmlns:xlink="http://www.w3.org/1999/xlink"
      >
        <rect
          height="10"
          width="2"
          x="15"
          y="5"
        />
         
        <rect
          height="20"
          width="2"
          x="10"
          y="5"
        />
         
        <rect
          height="20"
          width="2"
          x="5"
          y="5"
        />
         
        <rect
          height="15"
          width="2"
        />
      </svg>
    </section>
     
    <section
      class="header-main-menu layout-main-menu"
    >
      <span
        class="logo-text"
      />
    </section>
  </header>
   
  <section
    class="body"
  >
    <section
      class="layout-minibar"
    >
      <menu-bar-body-stub />
    </section>
     
    <section
      class="body-main-menu layout-main-menu scroller"
    >
      <search-body-stub />
    </section>
  </section>
</div>
`;
